%% DO NOT EDIT this file manually; it is automatically
%% generated from LSR http://lsr.di.unimi.it
%% Make any changes in LSR itself, or in Documentation/snippets/new/ ,
%% and then run scripts/auxiliar/makelsr.py
%%
%% This file is in the public domain.
\version "2.23.1"

\header {
  lsrtags = "editorial-annotations, pitches"

  texidoc = "
The @code{shapeNoteStyles} property can be used to define various note
head styles for each step of the scale (as set by the key signature or
the @code{tonic} property).

This property requires a set of symbols, which can be purely arbitrary
(geometrical expressions such as @code{triangle}, @code{cross}, and
@code{xcircle} are allowed) or based on old American engraving
tradition (some latin note names are also allowed).

That said, to imitate old American song books, there are several
predefined note head styles available through shortcut commands such as
@code{\\aikenHeads} or @code{\\sacredHarpHeads}.

This example shows different ways to obtain shape note heads, and
demonstrates the ability to transpose a melody without losing the
correspondence between harmonic functions and note head styles.

"
  doctitle = "Applying note head styles depending on the step of the scale"
} % begin verbatim

fragment = {
  \key c \major
  c2 d
  e2 f
  g2 a
  b2 c
}

\new Staff {
  \transpose c d
  \relative c' {
    \set shapeNoteStyles = ##(do re mi fa
                               #f la ti)
    \fragment
  }

  \break

  \relative c' {
    \set shapeNoteStyles = ##(cross triangle fa #f
                               mensural xcircle diamond)
    \fragment
  }
}
