%% DO NOT EDIT this file manually; it is automatically
%% generated from LSR http://lsr.di.unimi.it
%% Make any changes in LSR itself, or in Documentation/snippets/new/ ,
%% and then run scripts/auxiliar/makelsr.py
%%
%% This file is in the public domain.
\version "2.23.1"

\header {
  lsrtags = "ancient-notation, contexts-and-engravers, staff-notation, tweaks-and-overrides"

  texidoc = "
The mensurstriche-layout where the bar lines do not show on the staves
but between staves can be achieved with a @code{StaffGroup} instead of
a @code{ChoirStaff}.  The bar line on staves is blanked out using
@code{\\hide}.

"
  doctitle = "Mensurstriche layout (bar lines between the staves)"
} % begin verbatim

global = {
  \hide Staff.BarLine
  s1 s
  % the final bar line is not interrupted
  \undo \hide Staff.BarLine
  \bar "|."
}

\new StaffGroup \relative c'' {
  <<
    \new Staff { << \global { c1 c } >> }
    \new Staff { << \global { c c } >> }
  >>
}
