%% DO NOT EDIT this file manually; it is automatically
%% generated from LSR http://lsr.di.unimi.it
%% Make any changes in LSR itself, or in Documentation/snippets/new/ ,
%% and then run scripts/auxiliar/makelsr.py
%%
%% This file is in the public domain.
\version "2.23.1"

\header {
  lsrtags = "rhythms"

  texidoc = "
Per default a @code{BarNumber} of a broken measure is not repeated at the
beginning of the new line.  To get a parenthesized @code{BarNumber} there,
use @code{first-bar-number-invisible-save-broken-bars}
for @code{barNumberVisibility}.

"
  doctitle = "Printing bar numbers for broken measures"
} % begin verbatim


\layout {
  \context {
    \Score
    barNumberVisibility = #first-bar-number-invisible-save-broken-bars
    \override BarNumber.break-visibility = ##(#f #t #t)
  }
}

\relative c' {
  c1 | d | e | f2 \bar "" \break
  fis | g1 | e2 \bar "" \break
  <>^"reenabled default"
  %% back to default, \unset Score.barNumberVisibility would do so as well.
  \set Score.barNumberVisibility =
    #first-bar-number-invisible-and-no-parenthesized-bar-numbers
  es | d1 | c
}
